
{
    
    "america":{
        "USA": "http://chng.it/7WZbBvGzpk",
        "Bolivia": "https://chng.it/FCnvtPMzY8",
        "Brazil": "http://chng.it/WRskvV6Syy",
        "Canada": "http://chng.it/tnHkSzLxMN",
        "Chile": "http://chng.it/DgPZmhpKgt",
        "Costa Rica": "https://chng.it/CgqC5W8Qnd",
        "Cuba": "https://chng.it/v6BtjHfVqN",
        "Dominican Republic": "https://chng.it/4n9Lwv2zyd",
        "Ecuador": "https://chng.it/5yZSdSPP96",
        "Guatemala": "https://chng.it/dzGw8Ywc",
        "Honduras": "https://chng.it/vGYd5vKN5Z",
        "Mexico": "http://chng.it/QVR8fgKkvN",
        "Nicaragua": "https://chng.it/w74Bn7hvQp",
        "Panama": "https://chng.it/Zjztd68PdQ"
    },
    "europe":{
        "Finland": "http://chng.it/DPkZjsJdjB",
        "France": "http://chng.it/X5LSQnwWpm",
        "Germany": "http://chng.it/vNN6mtXm5z",
        "Greece": "http://chng.it/p92Tdnk2SK",
        "Ireland": "http://chng.it/hfT62Gx62Z",
        "Portugal": "http://chng.it/BhnDCPDDBr",
        "Russia": "http://chng.it/2zbnmvJPRC",
        "Spain": "http://chng.it/mgvr8rfC52",
        "United Kingdom": "http://chng.it/TRC6TjVpyn",
        "Ukraine": "http://chng.it/KhPLBbyWVn"
    },
    "asia-australia":{
        "Australia": "http://chng.it/nrnsZBTGN5",
        "East Timor": "http://chng.it/F7QsL4XcrR",
        
        "Afghanistan": "http://chng.it/Zk5PKfFSCV",
        "Bangladesh": "http://chng.it/pvsdrfgnyx",
        "Cambodia": "http://chng.it/XxPBkDWYFK",
        "India": "http://chng.it/tdkcgqH9X6",
        "Iran": "https://chng.it/bpvbZh5Rmn",
        "Maldives": "http://chng.it/gvbQ95SdGn",
        "Vietnam": "http://chng.it/XcYWvdm5hp"
        
    },
    "middle-east":{
        "Israel": "http://chng.it/Cb2pvh26tx",
        "Turkey": "http://chng.it/RLV6wgpnMQ"
    },
    "africa":{
        "Angola": "http://chng.it/wpZZpdfwRf",
        "Alger": "https://chng.it/qGjSX4rj",
        "Cabo Verde": "http://chng.it/ZdmjnLS9dS",
        "Equatorial Guinea": "http://chng.it/b8hVnky78w",
        "Egypt": "https://chng.it/sNJNFbq4",
        "Guinea Bissau": "http://chng.it/CwrLgVpZC4",
        "Mozambique": "http://chng.it/7gQhYC5Qbw",
        "Nigeria": "https://chng.it/Y4FhgK98wn",
        "Sao Tome & Principe": "http://chng.it/rfQr2gycWS"
    }
}
